Police Shootings – data
…
ℹ Use `spec()` to retrieve the full column specification for this data.
ℹ Specify the column types or set `show_col_types = FALSE` to quiet this message.

#removing old `city` tag from data set that we created when decatenated the city names
police_locals <- police_locals |>
  select(-city_old)

#creating df with only agency `names`, `id`, and `state`
agencies_ids <- agencies |>
  select(name, id, state)
agencies_ids

# A tibble: 3,422 × 3
   name                                   id state
   <chr>                               <dbl> <chr>
 1 Abbeville County Sheriff's Office    3145 SC   
 2 Aberdeen Police Department           2576 WA   
 3 Abilene Police Department            2114 TX   
 4 Abington Township Police Department  2088 PA   
 5 Acadia Parish Sheriff's Office       3187 LA   
 6 Acworth Police Department            3375 GA   
 7 Ada County Sheriff's Office          1241 ID   
 8 Adair County Sheriff's Office        1615 OK   
 9 Adams County Sheriff's Department    1978 CO   
10 Adams County Sheriff's Department     897 ID   
# ℹ 3,412 more rows

#creating df with `city`, `agency`, and `state` info for each shooting
shooting_agencies <- shootings |>
  select(city, agency_ids, state)
shooting_agencies

# A tibble: 9,129 × 3
   city          agency_ids state
   <chr>         <chr>      <chr>
 1 Shelton       73         WA   
 2 Aloha         70         OR   
 3 Wichita       238        KS   
 4 San Francisco 196        CA   
 5 Evans         473        CO   
 6 Guthrie       101        OK   
 7 Chandler      195        AZ   
 8 Assaria       490        KS   
 9 Burlington    287        IA   
10 Knoxville     26254      PA   
# ℹ 9,119 more rows

#changing `shooting` var in `shooting_agencies` df to numeric
shooting_agencies$agency_ids <- as.numeric(shootings$agency_ids)

Warning: NAs introduced by coercion

#creating df with `city` and `state` info for each agency by joining `agencies_ids` and `shooting_agencies`
agencies_w_cities <- agencies_ids |>
  left_join(shooting_agencies, by = c("id" = "agency_ids", "state" = "state")) |>
  drop_na(city) |>
  distinct(id, .keep_all = TRUE)
agencies_w_cities

# A tibble: 2,944 × 4
   name                                   id state city             
   <chr>                               <dbl> <chr> <chr>            
 1 Abbeville County Sheriff's Office    3145 SC    Abbeville        
 2 Aberdeen Police Department           2576 WA    Aberdeen         
 3 Abilene Police Department            2114 TX    Abilene          
 4 Abington Township Police Department  2088 PA    Abington Township
 5 Acadia Parish Sheriff's Office       3187 LA    Crowley          
 6 Acworth Police Department            3375 GA    Acworth          
 7 Ada County Sheriff's Office          1241 ID    Boise            
 8 Adair County Sheriff's Office        1615 OK    Watts            
 9 Adams County Sheriff's Department    1978 CO    Denver           
10 Adams County Sheriff's Department     897 ID    Council          
# ℹ 2,934 more rows

#creating df with census data for each agency by joining `agencies_w_cities` and `police_locals`
agencies_census <- agencies_w_cities |>
  full_join(police_locals, by = c("city" = "city", "state" = "state")) |>
  drop_na(police_force_size) |>
  distinct(id, .keep_all = TRUE)
agencies_census

# A tibble: 181 × 11
   name         id state city  police_force_size    all  white `non-white` black
   <chr>     <dbl> <chr> <chr>             <dbl>  <dbl>  <dbl>       <dbl> <chr>
 1 Adams Co…  1978 CO    Denv…              1820 0.283  0.149        0.490 0.58…
 2 Alameda …   806 CA    Oakl…              1530 0.0948 0.0267       0.160 0.06…
 3 Albany P…  2237 NY    Alba…               890 0.185  0.160        0.364 **   
 4 Albuquer…   508 NM    Albu…              1340 0.616  0.630        0.602 **   
 5 Amtrak P…  1657 IL    Chic…             12120 0.875  0.872        0.877 0.89…
 6 Arlingto…   480 VA    Arli…              1360 0.202  0.222        0.180 0.16 
 7 Atlanta …   447 GA    Atla…              2950 0.137  0.186        0.111 0.10…
 8 Austin P…   141 TX    Aust…              1985 0.295  0.195        0.427 0.25 
 9 Baltimor…  4784 MD    Balt…              2800 0.257  0.133        0.362 0.39…
10 Baltimor…   149 MD    Balt…              2800 0.257  0.133        0.362 0.39…
# ℹ 171 more rows
# ℹ 2 more variables: hispanic <chr>, asian <chr>
